[gd_scene load_steps=4 format=2]

[ext_resource path="res://assets/fonts/Cabin-SemiBold.otf" type="DynamicFontData" id=1]
[ext_resource path="res://ScoreLabel/ScoreLabel.gd" type="Script" id=2]

[sub_resource type="DynamicFont" id=1]
size = 300
use_filter = true
font_data = ExtResource( 1 )

[node name="ScoreLabel" type="Label"]
modulate = Color( 1, 1, 1, 0.34902 )
anchor_right = 1.0
anchor_bottom = 1.0
custom_fonts/font = SubResource( 1 )
text = "0"
align = 1
valign = 1
script = ExtResource( 2 )

[node name="Tween" type="Tween" parent="."]

