[gd_scene load_steps=5 format=2]

[ext_resource path="res://ScoreBoard/ScoreRow.gd" type="Script" id=1]
[ext_resource path="res://assets/fonts/ScoreRow.tres" type="DynamicFont" id=2]

[sub_resource type="GDScript" id=1]

script/source = "extends Label

func set_rank(index):
	var suffix = \"\"
	match index:
		0:
			suffix = \"st\"
		1:
			suffix = \"nd\"
		2:
			suffix = \"rd\"
		_:
			suffix = \"th\"
	text = \"%s%s\" % [index + 1, suffix]
"

[sub_resource type="Animation" id=2]

resource_name = "fade_in"
length = 0.3
loop = false
step = 0.1
tracks/0/type = "value"
tracks/0/path = NodePath(".:modulate")
tracks/0/interp = 1
tracks/0/loop_wrap = true
tracks/0/imported = false
tracks/0/enabled = true
tracks/0/keys = {
"times": PoolRealArray( 0, 0.3 ),
"transitions": PoolRealArray( 1, 1 ),
"update": 0,
"values": [ Color( 1, 1, 1, 0 ), Color( 1, 1, 1, 1 ) ]
}

[node name="ScoreRow" type="HBoxContainer" index="0"]

anchor_left = 0.0
anchor_top = 0.5
anchor_right = 1.0
anchor_bottom = 0.5
margin_top = -44.0
margin_bottom = 44.0
rect_pivot_offset = Vector2( 0, 0 )
rect_clip_content = false
mouse_filter = 2
mouse_default_cursor_shape = 0
size_flags_horizontal = 1
size_flags_vertical = 1
alignment = 1
script = ExtResource( 1 )

[node name="Rank" type="Label" parent="." index="0"]

anchor_left = 0.0
anchor_top = 0.0
anchor_right = 0.0
anchor_bottom = 0.0
margin_right = 357.0
margin_bottom = 88.0
rect_pivot_offset = Vector2( 0, 0 )
rect_clip_content = false
mouse_filter = 2
mouse_default_cursor_shape = 0
size_flags_horizontal = 3
size_flags_vertical = 4
custom_fonts/font = ExtResource( 2 )
text = "1ST"
align = 2
uppercase = true
percent_visible = 1.0
lines_skipped = 0
max_lines_visible = -1
script = SubResource( 1 )

[node name="Score" type="Label" parent="." index="1"]

anchor_left = 0.0
anchor_top = 0.0
anchor_right = 0.0
anchor_bottom = 0.0
margin_left = 361.0
margin_right = 718.0
margin_bottom = 88.0
rect_pivot_offset = Vector2( 0, 0 )
rect_clip_content = false
mouse_filter = 2
mouse_default_cursor_shape = 0
size_flags_horizontal = 3
size_flags_vertical = 4
custom_fonts/font = ExtResource( 2 )
text = "001"
align = 1
uppercase = true
percent_visible = 1.0
lines_skipped = 0
max_lines_visible = -1

[node name="Initials" type="Label" parent="." index="2"]

anchor_left = 0.0
anchor_top = 0.0
anchor_right = 0.0
anchor_bottom = 0.0
margin_left = 722.0
margin_right = 1080.0
margin_bottom = 88.0
rect_pivot_offset = Vector2( 0, 0 )
rect_clip_content = false
mouse_filter = 2
mouse_default_cursor_shape = 0
size_flags_horizontal = 3
size_flags_vertical = 4
custom_fonts/font = ExtResource( 2 )
text = "RMS"
uppercase = true
percent_visible = 1.0
lines_skipped = 0
max_lines_visible = -1

[node name="AnimationPlayer" type="AnimationPlayer" parent="." index="3"]

root_node = NodePath("..")
autoplay = ""
playback_process_mode = 1
playback_default_blend_time = 0.0
playback_speed = 1.0
anims/fade_in = SubResource( 2 )
blend_times = [  ]


