[gd_scene load_steps=3 format=2]

[ext_resource path="res://assets/fence.png" type="Texture" id=1]

[sub_resource type="RectangleShape2D" id=1]
extents = Vector2( 260, 20 )

[node name="Fence" type="Sprite"]
texture = ExtResource( 1 )
offset = Vector2( 241, -60 )

[node name="VisibilityEnabler2D" type="VisibilityNotifier2D" parent="."]
position = Vector2( 520, 0 )

[node name="Area2D" type="StaticBody2D" parent="."]
collision_layer = 2
collision_mask = 0

[node name="CollisionShape2D" type="CollisionShape2D" parent="Area2D"]
position = Vector2( 260, -110 )
shape = SubResource( 1 )

[connection signal="screen_exited" from="VisibilityEnabler2D" to="." method="queue_free"]
